[
    {
        "headline": "Who won your club's Player of the Year award? | Football News | Sky Sports",
        "images": [
            {
                "caption": "Tottenham Dele Alli with the PFA Young Player of the Year award",
                "url": "http://e1.365dm.com/17/04/16-9/20/skysports-dele-alli-tottenham-young-player-of-the-year_3937279.jpg?20170424001748"
            },
            {
                "caption": "Romelu Lukaku and Tom Davies landed the big awards at Goodison Park",
                "url": "http://e1.365dm.com/17/05/16-9/20/skysports-tom-davies-romelu-lukaku-everton_3949965.jpg?20170510171154"
            },
            {
                "caption": "Clucas scooped Hull's Player of the Year Award, selected by manager Marco Silva",
                "url": "http://e1.365dm.com/17/03/16-9/20/skysports-sam-clucas-hull-leicester_3902859.jpg?20170304153100"
            },
            {
                "caption": "Mane claimed two awards at Liverpool after his scintillating debut season",
                "url": "http://e1.365dm.com/16/12/16-9/20/skysports-sadio-mane-liverpool-premier-league_3860203.jpg?20161228114105"
            },
            {
                "caption": "N'Golo Kante with the PFA Players' Player of the Year award",
                "url": "http://e1.365dm.com/17/04/16-9/20/skysports-ngolo-kante-chelsea-pfa-award_3937274.jpg?20170423234739"
            },
            {
                "caption": "It was a clean sweep for Southampton's engine in midfield, Oriol Romeu ",
                "url": "http://e0.365dm.com/17/01/16-9/20/skysports-oriol-romeu-southampton_3876652.jpg?20170123171850"
            }
        ],
        "url": "http://www.skysports.com/football/news/11661/10871659/who-won-your-clubs-player-of-the-year-award"
    },
    {
        "headline": "US Open 2016: Novak Djokovic beats Kyle Edmund in fourth round - BBC Sport",
        "images": [
            {
                "caption": "Djokovic kept Edmund moving around the court",
                "url": "data:image/gif;base64,R0lGODlhAQABAIAAAAAAAP///yH5BAEAAAAALAAAAAABAAEAAAIBRAA7"
            },
            {
                "caption": "Tennis",
                "url": "data:image/gif;base64,R0lGODlhAQABAIAAAAAAAP///yH5BAEAAAAALAAAAAABAAEAAAIBRAA7"
            },
            {
                "caption": "Kyle Edmund",
                "url": "http://ichef.bbci.co.uk/onesport/cps/480/cpsprodpb/1171C/production/_91025417_edmund_groan_getty.jpg"
            }
        ],
        "url": "http://www.bbc.co.uk/sport/tennis/37268846"
    }
]